…
### Reshaping Data
Notes:


```r
library(tidyr)

spread(subset(pf.fc_by_age_gender, 
       select = c('gender', 'age', 'median_friend_count')), 
       gender, median_friend_count)
```

```
## # A tibble: 101 x 3
##      age female  male
##  * <int>  <dbl> <dbl>
##  1    13  148.0  55.0
##  2    14  224.0  92.5
##  3    15  276.0 106.5
##  4    16  258.5 136.0
##  5    17  245.5 125.0
##  6    18  243.0 122.0
##  7    19  229.0 130.0
##  8    20  190.0 112.0
##  9    21  158.0 108.0
## 10    22  124.0  97.0
## # ... with 91 more rows
```
…
